{
  "ci": {
    "host": "ci.example.com",
    "port": 8111,
    "username": "username",
    "password": "password"
  },

  "types": {
    "example": {
      "configurations": [
        "example"
      ],
      "instances": 1,
      "destination": "./working/container"
    }
  },

  "configurations": {
    "example": {
      "destination": "./working",
      "sources": {
        "Example_Build": [
          "Example.jar"
        ]
      }
    }
  }
}